{
  "stats": {
    "suites": 1,
    "tests": 6,
    "passes": 6,
    "pending": 0,
    "failures": 0,
    "start": "2021-03-17T23:00:21.061Z",
    "end": "2021-03-17T23:00:31.244Z",
    "duration": 10183,
    "testsRegistered": 6,
    "passPercent": 100,
    "pendingPercent": 0,
    "other": 0,
    "hasOther": false,
    "skipped": 0,
    "hasSkipped": false
  },
  "results": [
    {
      "uuid": "867edfc4-9a51-4ec2-9c9d-80770955f563",
      "title": "",
      "fullFile": "cypress\\integration\\TodoMVC.spec.js",
      "file": "cypress\\integration\\TodoMVC.spec.js",
      "beforeHooks": [],
      "afterHooks": [],
      "tests": [],
      "suites": [
        {
          "uuid": "bc6485d7-798d-4a10-a6b9-d5bdfc35f021",
          "title": "TodoMVC Test Suite",
          "fullFile": "",
          "file": "",
          "beforeHooks": [],
          "afterHooks": [],
          "tests": [
            {
              "title": "Cadastrar itens na lista",
              "fullTitle": "TodoMVC Test Suite Cadastrar itens na lista",
              "timedOut": null,
              "duration": 2328,
              "state": "passed",
              "speed": "slow",
              "pass": true,
              "fail": false,
              "pending": false,
              "context": null,
              "code": "cy.get(el.textArea).should('have.text', 'ITEM 1');",
              "err": {},
              "uuid": "b76a82a2-3518-473b-a0b5-3ff286bf15cf",
              "parentUUID": "bc6485d7-798d-4a10-a6b9-d5bdfc35f021",
              "isHook": false,
              "skipped": false
            },
            {
              "title": "Excluir itens da lista",
              "fullTitle": "TodoMVC Test Suite Excluir itens da lista",
              "timedOut": null,
              "duration": 1031,
              "state": "passed",
              "speed": "slow",
              "pass": true,
              "fail": false,
              "pending": false,
              "context": null,
              "code": "_FrontPage[\"default\"].deleteItem();\n_FrontPage[\"default\"].deleteItem();\ncy.get(el.textArea).should('have.text', 'ITEM 3');",
              "err": {},
              "uuid": "c0e17e7b-baad-455f-8c93-c3d4b40e3a84",
              "parentUUID": "bc6485d7-798d-4a10-a6b9-d5bdfc35f021",
              "isHook": false,
              "skipped": false
            },
            {
              "title": "Marcar 1 item como completo",
              "fullTitle": "TodoMVC Test Suite Marcar 1 item como completo",
              "timedOut": null,
              "duration": 1043,
              "state": "passed",
              "speed": "slow",
              "pass": true,
              "fail": false,
              "pending": false,
              "context": null,
              "code": "_FrontPage[\"default\"].completeItem();\n_FrontPage[\"default\"].clickCompleted();\ncy.get(el.textArea).should('have.text', 'ITEM 1');",
              "err": {},
              "uuid": "3a9ee6b8-0458-4752-acd9-b8c26caa0c1e",
              "parentUUID": "bc6485d7-798d-4a10-a6b9-d5bdfc35f021",
              "isHook": false,
              "skipped": false
            },
            {
              "title": "Selecionar filtro ACTIVE",
              "fullTitle": "TodoMVC Test Suite Selecionar filtro ACTIVE",
              "timedOut": null,
              "duration": 844,
              "state": "passed",
              "speed": "slow",
              "pass": true,
              "fail": false,
              "pending": false,
              "context": null,
              "code": "_FrontPage[\"default\"].clickActive();\ncy.get(el.textArea).should('have.text', 'ITEM 1');",
              "err": {},
              "uuid": "4fab7b82-3c5e-47b6-84d9-7e32756b4c61",
              "parentUUID": "bc6485d7-798d-4a10-a6b9-d5bdfc35f021",
              "isHook": false,
              "skipped": false
            },
            {
              "title": "Selecionar filtro COMPLETED",
              "fullTitle": "TodoMVC Test Suite Selecionar filtro COMPLETED",
              "timedOut": null,
              "duration": 950,
              "state": "passed",
              "speed": "slow",
              "pass": true,
              "fail": false,
              "pending": false,
              "context": null,
              "code": "_FrontPage[\"default\"].completeItem();\n_FrontPage[\"default\"].clickCompleted();\ncy.get(el.textAreaComplete).should('have.text', 'ITEM 1');",
              "err": {},
              "uuid": "10d4e5de-1456-42ad-82a6-ed00d4527774",
              "parentUUID": "bc6485d7-798d-4a10-a6b9-d5bdfc35f021",
              "isHook": false,
              "skipped": false
            },
            {
              "title": "Selecionar CLEAR COMPLETED",
              "fullTitle": "TodoMVC Test Suite Selecionar CLEAR COMPLETED",
              "timedOut": null,
              "duration": 1037,
              "state": "passed",
              "speed": "slow",
              "pass": true,
              "fail": false,
              "pending": false,
              "context": null,
              "code": "_FrontPage[\"default\"].completeItem();\n_FrontPage[\"default\"].clearCompleted();\n_FrontPage[\"default\"].clickActive();\ncy.get(el.textArea).should('have.text', 'ITEM 2');",
              "err": {},
              "uuid": "3ad614ef-196a-4345-ad63-d5c1af8370cd",
              "parentUUID": "bc6485d7-798d-4a10-a6b9-d5bdfc35f021",
              "isHook": false,
              "skipped": false
            }
          ],
          "suites": [],
          "passes": [
            "b76a82a2-3518-473b-a0b5-3ff286bf15cf",
            "c0e17e7b-baad-455f-8c93-c3d4b40e3a84",
            "3a9ee6b8-0458-4752-acd9-b8c26caa0c1e",
            "4fab7b82-3c5e-47b6-84d9-7e32756b4c61",
            "10d4e5de-1456-42ad-82a6-ed00d4527774",
            "3ad614ef-196a-4345-ad63-d5c1af8370cd"
          ],
          "failures": [],
          "pending": [],
          "skipped": [],
          "duration": 7233,
          "root": false,
          "rootEmpty": false,
          "_timeout": 2000
        }
      ],
      "passes": [],
      "failures": [],
      "pending": [],
      "skipped": [],
      "duration": 0,
      "root": true,
      "rootEmpty": true,
      "_timeout": 2000
    }
  ],
  "meta": {
    "mocha": {
      "version": "7.0.1"
    },
    "mochawesome": {
      "options": {
        "quiet": false,
        "reportFilename": "mochawesome",
        "saveHtml": false,
        "saveJson": true,
        "consoleReporter": "spec",
        "useInlineDiffs": false,
        "code": true
      },
      "version": "6.2.2"
    },
    "marge": {
      "options": {
        "id": "default",
        "reportDir": "cypress/reports/mocha",
        "quite": true,
        "overwrite": false,
        "html": false,
        "json": true
      },
      "version": "5.2.0"
    }
  }
}